Adult,Club
Offers,FREE
FREE,Membership
INSTANT,ACCESS
ACCESS,TO
TO,ALL
ALL,SITES
SITES,NOW
Your,User
User,Name
Name,And
And,Password
Password,is
User,Name
Name,zzzzexamplecom
of,the
the,Best
Best,Adult
Adult,Sites
Sites,on
on,the
the,Internet
Internet,for
for,FREENEWS
FREENEWS,With
With,just
just,over
Million,Members
Members,that
that,signed
signed,up
up,for
for,FREE
FREE,Last
Last,month
month,there
there,were
NewMembers,Are
Are,you
you,one
one,of
of,them
them,yetOur
yetOur,Membership
Membership,FAQQ
FAQQ,Why
Why,are
are,you
you,offering
offering,free
free,access
access,to
adult,membership
membership,sites
sites,for
for,freeA
freeA,I
I,have
have,advertisers
advertisers,that
that,pay
pay,me
me,for
for,ad
ad,space
space,so
so,you
you,dont
dont,have
have,to
to,pay
pay,for
for,membershipQ
membershipQ,Is
Is,it
it,true
true,my
my,membership
membership,is
is,for
for,lifeA
lifeA,Absolutely
Absolutely,youll
youll,never
never,have
have,to
to,pay
pay,a
a,cent
cent,the
the,advertisers
advertisers,doQ
doQ,Can
Can,I
I,give
give,my
my,account
account,to
to,my
my,friends
friends,and
and,familyA
familyA,Yes
Yes,as
as,long
long,they
they,are
are,over
over,the
the,age
age,of
of,Q
Q,Do
Do,I
I,have
have,to
to,sign
sign,up
up,for
for,all
membership,sitesA
sitesA,No
No,just
just,one
one,to
to,get
get,access
access,to
to,all
all,of
of,themQ
themQ,How
How,do
do,I
I,get
get,startedA
startedA,Click
Click,on
on,one
one,of
of,the
the,following
following,links
links,below
below,to
to,become
become,a
a,member
member,These
These,are
are,multi
multi,million
million,dollar
dollar,operations
operations,with
with,policies
policies,and
and,rules
rules,Fill
Fill,in
in,the
the,required
required,info
info,and
and,they
they,wont
wont,charge
charge,you
you,for
for,the
the,Free
Free,pass
pass,If
If,you
you,dont
dont,believe
believe,us
us,just
just,read
read,their
their,terms
terms,and
and,conditions
Adults,FarmfarmaidGirls
FarmfarmaidGirls,and
and,Animals
Animals,Getting
Getting,FreakyFREE
FreakyFREE,Lifetime
Lifetime,Membership
Sexy,CelebescelebstaidThousands
CelebescelebstaidThousands,Of
Of,XXX
XXX,Celebes
Celebes,doing
doing,itFREE
itFREE,Lifetime
Lifetime,Membership
Play,House
House,PornmegaaidLive
PornmegaaidLive,Feeds
Feeds,From
Sites,And
And,Web
Web,CamsFREE
CamsFREE,Lifetime
Lifetime,Membership
Asian,Sex
Sex,FantasiesasianaidJapanese
FantasiesasianaidJapanese,Schoolgirls
Schoolgirls,Live
Live,Sex
Sex,Shows
Shows,FREE
FREE,Lifetime
Lifetime,Membership
Lesbian,LacelesbianaidGirls
LacelesbianaidGirls,and
and,Girls
Girls,Getting
Getting,Freaky
Freaky,FREE
FREE,Lifetime
Lifetime,MembershipJennifer
MembershipJennifer,Simpson
Simpson,Miami
Miami,FLYour
FLYour,FREE
FREE,lifetime
lifetime,membership
membership,has
has,entertained
entertained,my
my,boyffriend
boyffriend,and
and,I
I,forthe
forthe,last
last,two
two,years
Your,Adult
Adult,Sites
Sites,are
are,the
the,best
best,on
on,the
the,netJoe
netJoe,Morgan
Morgan,Manhattan
Manhattan,NYYour
NYYour,live
live,sex
sex,shows
shows,and
and,live
live,sex
sex,cams
cams,are
are,unbelievable
unbelievable,The
The,best
best,partabout
partabout,your
your,porn
porn,sites
sites,is
is,that
that,theyre
theyre,absolutely
absolutely,FREERemoval
FREERemoval,InstructionsYou
InstructionsYou,have
have,received
received,this
this,advertisement
advertisement,because
because,you
you,have
have,opted
opted,in
in,to
to,receive
receive,free
free,adult
adult,internetoffers
internetoffers,and
and,specials
specials,through
through,our
our,affiliated
affiliated,websites
websites,If
If,you
you,do
do,not
not,wish
wish,to
to,receive
receive,further
further,emailsor
emailsor,have
have,received
received,the
the,email
email,in
in,error
error,you
you,may
may,optout
optout,of
of,our
our,database
database,hereoptout
Please,allow
hours,for
for,removalvonolmosatkirekpups
