great,minds
minds,think
think,alike
alike,But
But,even
even,withput
withput,eval
eval,rules
rules,it
it,would
would,be
be,very
very,useful
useful,It
It,would
would,allow
allow,us
us,to
to,respond
respond,quickly
quickly,to
to,spammers
spammers,tricksTheo
tricksTheo,Van
Van,Dinter
Dinter,wrote
wrote,On
On,Thu
Thu,Aug
at,AM
Marc,Perkel
Perkel,wrote
wrote,Has
Has,anyone
anyone,though
though,of
of,the
the,idea
idea,of
of,live
live,updates
updates,of
of,rules
rules,after
after,release
release,The
The,idea
idea,being
being,that
that,the
the,user
user,can
can,run
run,a
a,cron
cron,job
job,once
once,a
a,week
week,or
or,so
so,and
and,get
get,the
the,new
new,default
default,rule
rule,set
set,This
This,would
would,allow
allow,us
us,to
to,react
react,faster
faster,to
I,suggested
suggested,this
this,a
a,few
few,months
months,ago
I,dont
dont,remember
remember,the
the,details
details,of
of,what
what,came
came,out
out,of
of,it
it,except
except,that
that,it
it,would
would,only
only,be
be,useful
useful,for
for,noneval
noneval,rules
rules,since
since,those
those,require
require,code
code,changes
changes,This
This,sfnet
sfnet,email
email,is
is,sponsored
sponsored,by
by,OSDN
Tired,of
of,that
that,same
same,oldcell
oldcell,phone
Get,a
a,new
new,here
here,for
for,FREErasprsourceforgerefcodevsSpamassassindevel
FREErasprsourceforgerefcodevsSpamassassindevel,mailing
mailing,listSpamassassindevellistssourceforgenetlistslistinfospamassassindevel
