Do,you
you,like
like,Sexy
Sexy,Animals
Animals,doing
doing,the
the,wild
wild,thing
thing,We
We,have
have,the
the,super
super,hot
hot,content
content,on
on,the
the,InternetThis
InternetThis,is
is,the
the,site
site,you
you,have
have,heard
heard,about
about,Rated
Rated,the
the,number
number,one
one,adult
adult,site
site,three
three,years
years,in
in,a
a,row
row,Thousands
Thousands,of
of,pics
pics,from
from,hardcore
hardcore,fucking
fucking,and
and,cum
cum,shots
shots,to
to,pet
pet,on
on,girl
girl,Thousands
Thousands,videosSo
videosSo,what
what,are
are,you
you,waiting
waiting,forCLICK
forCLICK,HEREYOU
HEREYOU,MUST
MUST,BE
BE,AT
AT,LEAST
TO,ENTERnbspnbspnbspYou
ENTERnbspnbspnbspYou,have
have,received
received,this
this,advertisement
advertisement,because
because,you
you,have
have,opted
opted,in
in,to
to,receive
receive,free
free,adult
adult,internet
internet,offers
offers,and
and,specials
specials,through
through,our
our,affiliated
affiliated,websites
websites,If
If,you
you,do
do,not
not,wish
wish,to
to,receive
receive,further
further,emails
emails,or
or,have
have,received
received,the
the,email
email,in
in,error
error,you
you,may
may,optout
optout,of
of,our
our,database
database,by
by,clicking
clicking,here
here,CLICK
CLICK,HEREPlease
HEREPlease,allow
allow,hours
hours,for
for,removalThis
removalThis,email
email,is
is,sent
sent,in
in,compliance
compliance,with
with,the
the,Information
Information,Exchange
Exchange,Promotion
Promotion,andPrivacy
andPrivacy,Protection
Protection,Act
Act,section
marked,as
as,Advertisement
Advertisement,with
with,valid
valid,removal
removal,instruction
instruction,NKIYs
