FREE,Movie
Movie,TicketsYou
TicketsYou,are
are,receiving
receiving,this
this,mailing
mailing,because
because,you
you,are
are,amember
amember,of
of,SendGreatOfferscom
SendGreatOfferscom,and
and,subscribed
subscribed,asJMNETNOTEINCCOMTo
asJMNETNOTEINCCOMTo,unsubscribe
unsubscribe,Click
Click,HeresubscriptionaspemJMNETNOTEINCCOMlSGOor
HeresubscriptionaspemJMNETNOTEINCCOMlSGOor,reply
reply,to
to,this
this,email
email,with
with,REMOVE
REMOVE,in
in,the
the,subject
subject,line
you,mustalso
mustalso,include
include,the
the,body
body,of
of,this
this,message
message,to
to,be
be,unsubscribed
unsubscribed,Any
Any,correspondence
correspondence,aboutthe
aboutthe,productsservices
productsservices,should
should,be
be,directed
directed,tothe
tothe,company
company,in
in,the
the,adEMJMNETNOTEINCCOMEM
