An,Additional
Additional,Income
Income,Stream
Stream,from
from,your
your,current
current,book
book,of
of,business
Agent,Commission
Client,yearold
yearold,male
male,Yearold
Yearold,female
female,Result
second,to
to,die
die,policy
policy,minimal
minimal,cash
cash,value
Policy,was
was,no
no,longer
longer,required
required,Insured
Insured,utilized
utilized,a
a,life
life,settlement
settlement,and
and,received
Agent,Commission
Client,yearold
yearold,male
male,with
with,health
health,complications
complications,Result
policy,with
with,small
small,cash
cash,value
value,Insured
Insured,utilized
utilized,a
a,life
life,settlement
settlement,and
and,received
Agent,Commission
Client,yearold
yearold,female
female,Result
policy,with
with,an
an,annual
annual,premium
premium,of
Policy,expires
expires,at
at,age
Insured,utilized
utilized,a
a,life
life,settlement
settlement,and
and,received
Multiple,opportunities
opportunities,to
to,earn
earn,commissionsfrom
commissionsfrom,one
one,strategy
strategy,If
If,any
any,of
of,your
your,elderly
elderly,clients
clients,health
health,personal
personal,or
or,financialneeds
financialneeds,or
or,circumstances
circumstances,have
have,changed
changed,since
since,the
the,original
original,life
life,policy
policy,wasissued
wasissued,you
you,have
have,the
the,opportunity
opportunity,to
to,create
create,an
an,additional
additional,income
income,streamwith
streamwith,Life
Life,Settlements
Earn,a
a,referral
referral,fee
fee,from
from,a
a,life
life,settlement
settlement,transaction
transaction,Trailer
Trailer,commission
commission,on
on,the
the,policy
policy,for
for,the
the,agent
agent,of
of,record
record,Earn
Earn,investment
investment,or
or,annuity
annuity,commissions
commissions,from
from,the
the,capital
capital,created
created,by
the,life
life,settlement
settlement,transaction
transaction,Earn
Earn,a
a,commission
commission,on
on,new
new,life
life,insurance
insurance,products
products,that
that,better
better,suit
your,clients
clients,current
current,needs
needs,Earn
Earn,a
a,commission
commission,on
on,the
the,conversion
conversion,if
if,the
the,policy
policy,being
being,considered
is,a
a,term
term,productEarn
productEarn,additional
additional,commissions
commissions,for
for,referring
referring,other
other,agents
agents,or
or,agencies
to,The
The,Life
Life,Settlement
Settlement,Alliance
Call,today
today,for
for,more
more,information
Please,fill
fill,out
out,the
the,form
form,below
below,for
for,more
more,information
information,Name
The,Life
Life,Settlement
Settlement,Alliance
We,dont
dont,want
want,anyone
anyone,to
to,receive
receive,our
our,mailings
mailings,who
who,does
does,not
not,wish
wish,to
to,Thisis
Thisis,professional
professional,communication
communication,sent
sent,to
to,insurance
insurance,professionals
professionals,To
To,beremoved
beremoved,from
from,this
this,mailing
mailing,list
list,DO
DO,NOT
NOT,REPLY
REPLY,to
to,this
this,message
message,Insteadgo
Insteadgo,here
here,optout
optout,Legal
Legal,Notice
One,Sale
Three,Commission
Commission,Streams
Agent,Commission
Commission,nbspClientnbspyearold
nbspClientnbspyearold,malenbspYearold
malenbspYearold,femalenbspResultnbsp
femalenbspResultnbsp,second
second,to
to,dienbsppolicy
dienbsppolicy,minimal
minimal,cash
cash,value
value,nbspPolicy
nbspPolicy,was
was,no
no,longernbsprequirednbspInsured
longernbsprequirednbspInsured,utilized
utilized,anbsplife
anbsplife,settlement
settlement,and
and,receivednbsp
Agent,CommissionnbspClientnbspyearold
CommissionnbspClientnbspyearold,male
male,with
with,health
health,complicationsnbspResultnbsp
complicationsnbspResultnbsp,policy
policy,with
with,smallnbspcash
smallnbspcash,value
value,Insured
Insured,utilizednbspa
utilizednbspa,life
life,settlement
settlement,andnbspreceived
Agent,CommissionnbspClientnbspyearold
CommissionnbspClientnbspyearold,femalenbspResultnbsp
femalenbspResultnbsp,policy
policy,with
with,annbspannual
annbspannual,premium
premium,of
of,nbspPolicy
nbspPolicy,expires
expires,at
at,age
age,nbspInsured
nbspInsured,utilized
utilized,a
a,lifenbspsettlement
lifenbspsettlement,and
and,receivednbsp
Multiple,opportunities
opportunities,to
to,earn
earn,commissions
from,one
one,strategy
If,any
any,of
of,your
your,elderly
elderly,clients
clients,health
personal,or
or,financial
financial,needs
needs,or
or,circumstances
circumstances,have
have,changed
changed,since
the,original
original,life
life,policy
policy,was
was,issued
issued,you
you,have
have,the
the,opportunity
opportunity,to
create,an
an,additional
additional,income
income,stream
stream,with
with,Life
Life,Settlements
Earn,a
a,referral
referral,fee
fee,from
from,a
a,life
life,settlement
settlement,transaction
Trailer,commission
commission,on
on,the
the,policy
policy,for
for,the
the,agent
agent,of
of,record
Earn,investment
investment,or
or,annuity
annuity,commissions
commissions,from
from,the
the,capital
capital,created
created,by
nbspnbspnbspthe,life
life,settlement
settlement,transaction
Earn,a
a,commission
commission,on
on,new
new,life
life,insurance
insurance,products
products,that
that,better
better,suit
nbspnbspnbspyour,clients
clients,current
current,needs
Earn,a
a,commission
commission,on
on,the
the,conversion
conversion,if
if,the
the,policy
policy,being
being,considered
nbspnbspnbspis,a
a,term
term,product
Earn,additional
additional,commissions
commissions,for
for,referring
referring,other
other,agents
agents,or
or,agencies
nbspnbspnbspto,The
The,Life
Life,Settlement
Settlement,Alliance
Call,today
today,for
for,more
more,information
Please,fill
fill,out
out,the
the,form
form,below
below,for
for,more
more,information
We,dont
dont,want
want,anyone
to,receive
receive,our
our,mailings
mailings,who
who,does
does,not
not,wish
wish,to
to,This
This,is
is,professional
professional,communication
sent,to
to,insurance
insurance,professionals
professionals,To
To,be
be,removed
removed,from
from,this
this,mailing
mailing,list
DO,NOT
NOT,REPLY
REPLY,to
to,this
this,message
message,Instead
Instead,go
go,here
Legal,Notice
