Using,Razor
Razor,via
via,SpamAssasinSystem
SpamAssasinSystem,is
is,Solaris
with,qmail
qmail,Spamassassin
Spamassassin,run
run,via
via,users
users,procmailAll
procmailAll,users
users,who
who,use
use,SA
SA,have
have,run
run,razorregisterRazor
razorregisterRazor,is
is,failing
failing,and
and,I
I,cant
cant,find
find,anything
anything,in
in,the
the,limited
limited,docs
docs,or
or,on
on,google
google,on
on,itand
itand,Im
Im,hoping
hoping,someone
someone,can
can,helpThe
helpThe,error
error,which
which,doesnt
doesnt,prevent
prevent,SA
SA,from
from,working
working,isOct
sancho,qmail
success,razorcheckskippedBadfilenumberCantlocateobjectmethodnewviapackageRazorClientAgentperhapsyouforgottoloadRazorClientAgentatusrlocallibperlsiteperlMailSpamAssassinDnspmlinedidLooking
razorcheckskippedBadfilenumberCantlocateobjectmethodnewviapackageRazorClientAgentperhapsyouforgottoloadRazorClientAgentatusrlocallibperlsiteperlMailSpamAssassinDnspmlinedidLooking,at
at,Dnspm
Dnspm,doesnt
doesnt,really
really,help
help,me
me,and
and,RazorClientAgent
RazorClientAgent,appears
appears,to
to,be
be,in
in,the
the,right
right,placein
placein,usrlocallibperlsiteperlRazorClientIdeasChrisThis
usrlocallibperlsiteperlRazorClientIdeasChrisThis,sfnet
sfnet,email
email,is
is,sponsored
sponsored,byThinkGeekWelcome
byThinkGeekWelcome,to
to,geek
geek,heavensfRazorusers
heavensfRazorusers,mailing
mailing,listRazoruserslistssourceforgenetlistslistinforazorusers
