Dear,sirMy
sirMy,name
name,is
is,DR
DR,Steven
Steven,M
M,Duba
the,son
son,of
of,MR
MR,TheoDuba
TheoDuba,of
of,Zimbabwe
Zimbabwe,I
I,got
got,your
your,address
address,from
from,SouthAfrican
SouthAfrican,Information
Information,exchange
exchange,JohannesburgDue
JohannesburgDue,to
to,the
the,previous
previous,war
war,against
against,white
white,farmers
farmers,inZimbabwe
inZimbabwe,by
by,PRESIDENT
PRESIDENT,ROBERT
ROBERT,MUGABE
MUGABE,and
and,his
his,supportersto
supportersto,claim
claim,all
all,the
the,white
white,owned
owned,farms
farms,in
in,our
our,country
country,heordered
heordered,all
all,the
the,White
White,owned
owned,farmers
farmers,to
to,surrender
surrender,alltheir
alltheir,farms
farms,to
to,his
his,party
party,members
members,and
and,his
his,followers
followers,Myfather
Myfather,was
was,a
a,victim
victim,of
of,this
this,oppression
oppression,and
and,inhumanbehavior
inhumanbehavior,as
as,he
he,was
was,one
one,of
of,the
the,richest
richest,farmers
farmers,in
in,ourcountrymy
ourcountrymy,fayher
fayher,was
was,totaly
totaly,against
against,the
the,act
act,by
by,thepresidnt
thepresidnt,MUGABE
MUGABE,The
The,presidents
presidents,supporters
supporters,invaded
invaded,myfathers
myfathers,farm
farm,burnt
burnt,everything
everything,in
in,the
the,farm
farm,arrestedhim
arrestedhim,and
and,confiscated
confiscated,all
all,his
his,investmentEarly
investmentEarly,last
last,year
year,when
when,this
this,victimization
victimization,of
of,whitefarmers
whitefarmers,by
by,president
president,Mugabe
Mugabe,started
started,my
my,late
late,fatherenvisaged
fatherenvisaged,a
a,worse
worse,situation
situation,he
he,arranged
arranged,almost
almost,allhis
allhis,money
money,concealed
concealed,it
it,in
in,a
a,box
box,and
and,smuggled
smuggled,it
it,out
out,ofZimbabwe
ofZimbabwe,through
through,Diplomatic
Diplomatic,means
means,to
to,South
South,AfricaWhen
AfricaWhen,he
he,arrived
arrived,South
South,Africa
Africa,he
he,lodged
lodged,the
the,box
box,in
in,aprivate
aprivate,security
security,company
company,through
through,the
the,help
help,of
of,hislawyer
hislawyer,here
here,in
in,South
South,Africa
Africa,without
without,revealing
revealing,the
the,realcontents
realcontents,of
of,the
the,box
box,to
to,the
the,security
security,company
company,thenwent
thenwent,back
back,home
home,He
He,registered
registered,the
the,box
box,as
as,familytreasureWhile
familytreasureWhile,he
he,was
was,still
still,in
in,detention
detention,that
that,led
led,to
to,his
his,deathdue
deathdue,to
to,torture
torture,he
he,directed
directed,me
me,to
to,his
his,lawyer
lawyer,in
in,SouthAfrica
SouthAfrica,because
because,of
of,the
the,escalation
escalation,of
of,the
the,crisis
crisis,inZimbabwe
inZimbabwe,He
He,did
did,not
not,want
want,my
my,life
life,to
to,be
be,in
in,danger
danger,Hewas
Hewas,arrested
arrested,on
on,the
the,th
th,of
of,March
March,last
last,yearUnfortunately
yearUnfortunately,my
my,dear
dear,father
father,died
died,on
on,the
the,th
th,ofDecember
ofDecember,I
I,came
came,to
to,south
south,Africa
Africa,MarchNow
MarchNow,my
my,stay
stay,here
here,in
in,Africa
Africa,is
is,frustrating
frustrating,anddepressing
anddepressing,because
because,my
my,fathers
fathers,lawyer
lawyer,is
is,presentlyhospitalized
presentlyhospitalized,in
in,London
London,due
due,to
to,terrible
terrible,heart
heart,problemthough
problemthough,the
the,lodgment
lodgment,documents
documents,are
are,with
with,me
me,as
as,such
such,Iwant
Iwant,to
to,relocate
relocate,to
to,your
your,country
country,for
for,good
good,Presentlymy
Presentlymy,residence
residence,permit
permit,here
here,in
in,South
South,Africa
Africa,is
is,an
an,Asylumpermit
Asylumpermit,as
as,a
a,refugeeI
refugeeI,am
am,seeking
seeking,for
for,your
your,assistance
assistance,in
in,transferring
transferring,themoney
themoney,in
in,the
the,security
security,company
company,US
US,Million
Million,out
out,ofthis
ofthis,country
country,to
to,your
your,country
country,for
for,investment
investment,If
If,youthink
youthink,you
you,can
can,help
help,me
me,Please
Please,try
try,to
to,get
get,in
in,touch
touch,withme
withme,immediately
immediately,with
with,the
number,below
Yourcompensationshare,for
for,assistance
assistance,will
will,be
be,negotiatedif
negotiatedif,you
you,are
are,ready
ready,to
to,assist
assist,me
me,Since
Since,the
the,problem
problem,in
in,mycountry
mycountry,is
is,still
still,lingering
lingering,please
please,endeavor
endeavor,to
to,keepthis
keepthis,information
information,to
to,yourself
yourself,and
and,secret
secret,because
because,Iwouldnt
Iwouldnt,want
want,anything
anything,that
that,will
will,expose
expose,me
me,and
and,theexistence
theexistence,of
of,this
this,moneyYour
moneyYour,urgent
urgent,response
response,will
will,be
be,highly
highly,appreciatedSincerely
appreciatedSincerely,yoursSTEVEN
yoursSTEVEN,DUBA
DUBA,DRTELDo
DRTELDo,You
You,YahooYahoo
YahooYahoo,Finance
Get,realtime
realtime,stock
stock,quotes
