RVrfIicucjcImutouicniBDIFgTo,Unsubscribe
Unsubscribe,send
send,mail
mail,to
to,majordomoFreeBSDorgwith
majordomoFreeBSDorgwith,unsubscribe
unsubscribe,freebsdports
freebsdports,in
in,the
the,body
body,of
of,the
the,message
