I,posted
posted,about
about,this
this,last
last,week
week,and
and,Im
Im,still
still,stumped
aptget,is
is,justnot
justnot,working
working,for
for,me
me,and
and,I
I,cant
cant,figure
figure,out
out,what
what,the
the,problem
problem,isIve
isIve,tried
tried,removing
removing,the
the,apt
apt,rpms
rpms,making
making,sure
sure,to
to,remove
remove,any
any,traces
traces,leftbehind
leftbehind,etcapt
etcapt,varstateapt
varstateapt,varcacheapt
varcacheapt,and
and,still
still,I
I,getcouldnt
getcouldnt,find
find,package
package,xmmsmp
xmmsmp,when
when,running
running,aptget
aptget,install
install,xmmsmpAny
xmmsmpAny,clues
Heres,a
a,log
log,of
of,a
a,fresh
fresh,tryrootcanarsietmp
rpm,e
e,apt
apt,aptdevelrootcanarsietmp
rm,rf
rf,etcapt
etcapt,varcacheapt
varcacheapt,varstateaptrootcanarsietmp
rpm,ivh
ivh,aptcncfrirpm
aptcncfrirpm,aptdevelcncfrirpmwarning
aptdevelcncfrirpmwarning,aptcncfrirpm
aptcncfrirpm,V
V,DSA
DSA,signature
signature,NOKEY
NOKEY,key
key,IDedbPreparing
aptget,updateIgn
redhateni,releaseGet
redhatenios,pkglist
pkglist,kBGet
redhatenios,release
release,BGet
redhateniupdates,pkglist
pkglist,BGet
redhateniupdates,release
release,BGet
redhatenifreshrpms,pkglistkBGet
redhatenifreshrpms,releaseBGet
redhatenios,srclist
srclist,kBGet
redhateniupdates,srclist
srclist,BGet
redhatenifreshrpms,srclistkBFetched
srclistkBFetched,kB
kB,in
in,s
s,kBsReading
kBsReading,Package
Package,Lists
Lists,Donerootcanarsietmp
aptget,install
install,xmmsmpReading
xmmsmpReading,Package
Package,Lists
Lists,DoneBuilding
DoneBuilding,Dependency
Dependency,Tree
Tree,DoneE
DoneE,Couldnt
Couldnt,find
find,package
package,xmmsmprootcanarsietmp
aptcache,search
search,xmmsrootcanarsietmp
xmmsrootcanarsietmp,Beats
Beats,meSteveK
Steve,Kann
Chief,Engineer
th,Ave
The,box
box,said
said,Requires
Requires,Windows
NT,or
or,better
better,so
so,I
I,installed
installed,LinuxRPMList
LinuxRPMList,mailing
mailing,list
list,mailmanlistinforpmlist
