Jim,Whitehead
writes,The
The,CD
CD,player
player,we
we,have
have,combines
combines,play
play,and
and,pause
pause,in
in,a
a,single
single,button
button,but
but,doesnt
doesnt,provide
provide,instantaneous
instantaneous,feedback
feedback,that
that,the
the,button
button,was
was,pushed
pushed,instead
instead,requiring
requiring,you
you,to
to,wait
wait,until
until,the
the,music
music,starts
seconds,This
This,is
is,a
a,UI
UI,disaster
disaster,Since
Since,Tatum
Tatum,doesnt
doesnt,get
get,feedback
feedback,right
right,away
away,she
she,presses
presses,the
the,button
button,again
again,thereby
thereby,pausing
pausing,the
the,CD
CD,before
before,it
it,even
even,plays
plays,Shell
Shell,only
only,ever
ever,get
get,music
music,if
if,she
she,presses
presses,the
the,button
button,an
an,odd
odd,number
number,of
of,times
times,This
This,happens
happens,a
a,surprising
surprising,amount
amount,of
of,the
the,time
time,since
since,she
she,eventually
eventually,hits
hits,the
the,button
button,again
again,when
when,the
the,music
music,doesnt
doesnt,playNice
playNice,to
to,hear
hear,that
that,somebody
somebody,else
else,does
does,this
this,too
too,Karl
Karl,Anderson
