On,Fri
Dale,Alspach
Alspach,wrote
wrote,My
My,experience
experience,has
has,been
been,that
that,if
if,the
the,item
item,is
is,showing
showing,in
in,xclipboard
xclipboard,and
and,is
is,highlighted
highlighted,that
that,is
is,what
what,is
is,pasted
pasted,using
using,the
the,mouseClassic
mouseClassic,X
X,copyandpaste
copyandpaste,behavior
behavior,is
is,that
that,you
you,can
can,only
only,paste
paste,what
what,iscurrently
iscurrently,highlighted
In,fact
fact,it
it,is
is,the
the,act
act,of
of,highlighting
highlighting,aselection
aselection,that
that,actually
actually,copies
copies,that
that,selection
selection,into
into,the
the,buffer
X,hasno
hasno,copy
copy,command
if,you
you,highlighted
highlighted,it
it,you
you,just
just,copied
copied,it
it,This
This,does
does,not
not,seem
seem,to
to,override
override,what
what,is
is,in
in,an
an,applications
applications,own
own,paste
paste,buffer
buffer,As
As,far
far,as
as,I
I,can
can,tell
tell,Maples
Maples,cut
cut,and
and,paste
paste,for
for,example
example,is
is,isolatedIf
isolatedIf,ab
ab,application
application,has
has,a
a,copy
copy,command
command,that
that,you
you,can
can,choose
choose,to
to,useseparately
useseparately,from
from,the
the,process
process,of
of,highlighting
highlighting,something
something,that
that,commandis
commandis,something
something,the
the,application
application,authors
authors,wrote
wrote,on
on,their
their,own
And,it
it,itlikely
itlikely,that
that,an
an,application
application,that
that,wrote
wrote,an
an,internal
internal,copy
copy,command
command,wouldalso
wouldalso,have
have,their
their,own
own,customized
customized,paste
paste,command
command,to
to,make
make,sure
sure,the
the,twowork
twowork,together
Whether,the
the,internal
internal,custom
custom,select
select,and
and,pastefunctions
pastefunctions,interoperate
interoperate,with
with,the
the,X
X,servers
servers,global
global,select
select,and
and,pastefunctions
pastefunctions,will
will,vary
vary,from
from,program
program,to
to,program
program,because
because,in
in,each
each,case
case,youare
youare,relying
relying,on
on,the
the,programs
programs,authors
authors,efforts
efforts,to
to,blend
blend,separate
separate,systems
systems,Jacob
Jacob,Morzinski
jmorzinsmiteduExmhusers,mailing
mailing,listExmhusersredhatcommailmanlistinfoexmhusers
