URL,archiveshtmlmygoodeasyDate
archiveshtmlmygoodeasyDate,TJoe
TJoe,Gregorio
Gregorio,My
My,next
next,pet
pet,project
project,Trying
Trying,to
to,recreate
recreate,the
the,Good
Good,Easy
Easy,on
on,a
a,Windows
Windows,machine
machine,I
I,have
have,also
also,made
made,halfhearted
halfhearted,attempts
attempts,in
in,this
this,direction
direction,as
as,I
I,am
am,forced
forced,to
to,use
use,Windows
Windows,during
during,the
the,day
day,I
I,say
say,halfhearted
halfhearted,because
because,Im
Im,still
still,applicationcentric
applicationcentric,and
and,I
I,dont
dont,go
go,as
as,far
far,with
with,keyboard
keyboard,shortcuts
shortcuts,as
as,I
I,could
could,But
But,I
I,dont
dont,use
use,the
the,desktop
desktop,at
at,all
all,never
never,have
have,on
on,any
any,system
system,and
and,I
I,dont
dont,use
use,ctrl
ctrl,alt
alt,keyboard
keyboard,shortcuts
shortcuts,because
because,I
I,personally
personally,find
find,them
them,awkward
awkward,YMMV
YMMV,If
If,you
you,must
must,use
use,Windows
Windows,the
the,first
first,step
step,towards
towards,a
a,productive
productive,system
system,is
is,managing
managing,your
your,Start
Start,menu
menu,I
I,use
use,the
the,main
main,level
level,of
of,the
the,Start
Start,menu
menu,with
with,numbered
numbered,shortcuts
shortcuts,to
to,my
my,most
most,common
common,programs
Control,Panel
DOS,home
DOS,work
DOS,incoming
incoming,each
each,of
of,which
which,gives
gives,me
me,a
a,command
command,line
line,but
but,in
in,different
different,directories
IE,Also
Explorer,home
Explorer,work
Explorer,incoming
incoming,which
which,open
open,Explorer
Explorer,windows
windows,in
in,various
various,useful
useful,directories
directories,the
the,same
same,directories
directories,as
as,the
the,DOS
DOS,shortcuts
shortcuts,only
only,with
with,the
the,shift
shift,key
key,held
held,down
down,and
and,yes
yes,I
I,intentionally
intentionally,set
set,it
it,up
up,so
so,that
went,to
to,my
my,work
work,folder
folder,Lessused
Lessused,programs
programs,are
are,taken
taken,out
out,of
of,their
their,useless
useless,submenus
submenus,as
as,installed
installed,and
and,moved
moved,directly
directly,into
into,the
the,Programs
Programs,submenu
submenu,and
and,given
given,unique
unique,first
first,letters
letters,as
as,needed
needed,Adaware
Adaware,Excel
Excel,IM
IM,Netscape
Paint,Shop
Shop,Pro
Pro,Query
Query,Tool
Tool,ODBC
ODBC,VMWare
VMWare,Word
Word,All
All,other
other,submenus
submenus,except
except,Startup
Startup,are
are,removed
removed,from
from,the
the,Programs
Programs,menu
menu,Yes
Yes,delete
delete,Accessories
Accessories,Do
Do,you
you,honestly
honestly,ever
ever,use
use,it
it,If
If,so
so,its
its,probably
probably,a
a,sign
sign,of
of,a
a,larger
larger,productivity
productivity,problem
problem,Things
Things,which
which,never
never,need
need,to
to,be
be,run
run,manually
manually,like
like,WinZip
WinZip,and
and,Quicktime
Quicktime,are
are,removed
removed,from
from,the
the,Programs
Programs,menu
menu,Maintaining
Maintaining,a
a,clean
clean,Programs
Programs,menu
menu,is
is,an
an,ongoing
ongoing,struggle
struggle,but
but,well
well,worth
worth,it
it,On
On,most
most,modern
modern,keyboards
keyboards,there
there,is
is,a
a,key
key,next
next,to
to,your
your,left
left,alt
alt,key
key,that
that,opens
opens,the
the,start
start,menu
menu,which
which,you
you,can
can,press
press,with
with,your
your,left
left,thumb
thumb,without
without,taking
taking,your
your,fingers
fingers,off
off,the
the,home
home,keys
keys,Otherwise
Otherwise,ctrl
ctrl,esc
esc,always
always,works
works,Menu
gives,me
me,a
a,new
new,command
command,prompt
prompt,in
in,my
my,work
work,directory
directory,Menu
Menu,P
P,N
N,runs
runs,Netscape
for,compatibility
compatibility,testing
testing,in
in,my
my,day
day,job
job,ugh
ugh,Mozilla
Mozilla,and
and,Emacs
Emacs,are
are,almost
almost,always
always,open
open,but
but,I
I,quit
quit,lesserused
lesserused,applications
applications,as
as,soon
soon,as
as,Im
Im,done
done,using
using,them
them,mostly
mostly,because
because,my
my,laptop
laptop,doesnt
doesnt,have
have,a
a,lot
lot,of
of,memory
memory,I
I,install
install,Cygwin
Cygwin,so
so,that
that,the
the,command
command,line
line,is
is,actually
actually,useful
useful,Cygwin
Cygwin,is
is,a
a,collection
collection,of
of,Windows
Windows,ports
ports,of
of,all
all,your
your,favorite
favorite,UNIX
UNIX,utilities
utilities,including
including,mv
mv,cp
cp,scp
scp,ssh
ssh,man
man,tar
tar,less
less,grep
grep,patch
patch,ncftp
ncftp,cvs
cvs,and
and,many
many,others
others,And
And,bash
bash,which
which,I
I,dont
dont,use
use,because
because,I
I,dislike
dislike,how
how,it
it,handles
handles,Windows
Windows,pathnames
pathnames,I
I,also
also,set
set,the
the,properties
properties,of
of,my
my,command
command,line
line,shortcuts
shortcuts,to
to,set
set,the
the,window
window,size
size,to
almost,full
full,screen
screen,at
and,screen
screen,buffer
buffer,size
size,to
Set,window
window,position
position,at
and,dont
dont,let
let,the
the,system
system,position
position,the
the,window
window,In
In,Mozilla
Mozilla,I
I,set
set,my
my,home
home,page
page,to
to,aboutblank
aboutblank,set
set,Internet
Internet,Search
Search,to
to,search
search,with
with,Google
Google,use
use,Tabbed
Tabbed,Browsing
Browsing,open
open,tabs
tabs,instead
instead,of
of,windows
windows,in
in,all
all,possible
possible,cases
cases,always
always,show
show,the
the,tab
tab,bar
bar,and
and,load
load,links
links,in
in,the
the,background
background,essential
essential,for
for,weblog
weblog,surfing
surfing,you
you,can
can,ctrl
ctrl,click
click,links
links,to
to,open
open,them
them,in
in,new
new,tabs
tabs,in
in,the
the,background
background,Under
Under,Scripts
Plugins,I
I,do
do,not
not,allow
allow,scripts
scripts,to
to,open
open,unrequested
unrequested,windows
windows,I
I,turn
turn,off
off,the
the,sidebar
sidebar,turn
turn,on
on,the
the,Site
Site,Navigation
Navigation,Bar
Bar,delete
delete,all
all,preinstalled
preinstalled,bookmarks
bookmarks,and
and,create
create,two
two,bookmarks
bookmarks,one
one,which
which,takes
takes,me
me,to
to,my
my,webmail
webmail,and
and,another
another,which
which,takes
takes,me
me,to
to,my
my,internal
internal,site
site,search
search,from
from,which
which,I
I,can
can,find
find,all
all,other
other,bookmarks
bookmarks,I
I,need
need,In
In,Internet
Internet,Explorer
Explorer,I
I,set
set,my
my,home
home,page
page,to
to,the
the,page
page,to
to,edit
edit,my
my,weblog
weblog,since
since,thats
thats,the
the,only
only,thing
thing,I
I,do
do,in
in,Internet
Internet,Explorer
Explorer,alt
alt,tab
tab,back
back,and
and,forth
forth,between
between,Mozilla
Mozilla,and
and,IE
IE,is
is,easier
easier,than
than,ctrl
ctrl,pguppgdown
pguppgdown,between
between,tabs
tabs,within
within,Mozilla
Mozilla,since
since,TEXTAREAs
TEXTAREAs,in
in,Mozilla
Mozilla,lose
lose,focus
focus,when
when,you
you,switch
switch,tabs
tabs,making
making,copying
copying,and
and,pasting
pasting,weblog
weblog,entries
entries,virtually
virtually,impossible
impossible,I
I,use
use,Emacs
Emacs,locally
locally,and
and,vi
vi,remotely
remotely,because
because,the
the,default
default,behavior
behavior,of
of,Emacs
Emacs,is
is,so
so,heinous
heinous,as
as,to
to,render
render,it
it,unusable
unusable,For
For,instance
instance,editing
editing,a
a,CGI
CGI,script
script,named
named,foocgi
foocgi,on
on,a
a,web
web,server
server,with
with,Emacs
Emacs,would
would,generate
generate,a
a,foocgi
foocgi,backup
backup,file
file,which
which,is
is,worldreadable
worldreadable,and
and,is
is,sent
sent,as
as,plain
plain,text
text,to
to,any
any,browser
browser,that
that,asks
asks,Try
Try,this
this,sometime
sometime,on
on,your
your,favorite
favorite,web
web,site
site,Among
Among,other
other,things
things,my
my,emacs
emacs,file
file,which
which,is
is,actually
actually,called
called,emacs
emacs,on
on,Windows
Windows,instructs
instructs,Emacs
Emacs,to
to,store
store,all
all,backup
backup,files
files,in
in,a
a,single
single,directory
directory,dbackup
dbackup,to
to,treat
treat,all
all,XML
XML,files
files,as
as,DocBook
DocBook,all
all,CGI
CGI,scripts
scripts,as
as,Python
Python,and
and,all
all,SQL
SQL,scripts
scripts,as
as,PLSQL
PLSQL,to
to,use
use,Cygwins
Cygwins,bash
bash,shell
shell,for
for,Mxshell
Mxshell,to
to,use
use,a
a,single
single,maximized
maximized,frame
frame,with
with,no
no,menubar
menubar,titled
titled,as
as,the
the,name
name,of
of,the
the,current
current,file
file,to
to,show
show,column
column,numbers
numbers,to
to,accept
accept,y
y,and
and,n
n,for
for,yesno
yesno,questions
questions,not
not,to
to,blink
blink,not
not,to
to,beep
beep,and
and,to
to,close
close,the
the,current
current,file
file,when
when,I
I,press
press,Mw
Mw,I
I,use
use,some
some,weird
weird,registry
registry,hacks
hacks,and
and,a
a,hacked
hacked,notepadexe
notepadexe,to
to,get
get,all
all,text
text,files
files,to
to,open
open,in
in,Emacs
Emacs,I
I,got
got,this
this,idea
idea,from
from,Ultraedit
Ultraedit,My
My,emacs
emacs,file
file,is
is,my
my,second
second,most
most,backedup
backedup,possession
possession,I
I,dont
dont,use
use,Windows
Windows,useless
useless,directory
directory,structure
structure,for
for,user
user,home
home,directories
directories,On
On,my
my,D
D,drive
drive,I
I,have
have,dhome
dhome,contains
contains,directories
directories,for
for,my
my,books
books,and
and,other
other,personal
personal,projects
projects,each
each,under
under,CVS
CVS,controlalso
controlalso,set
set,as
as,my
my,home
home,directory
directory,using
using,the
the,HOME
HOME,environment
environment,variable
variable,dwork
dwork,contains
contains,directories
directories,for
for,each
each,work
work,project
project,also
also,under
under,CVS
CVS,dincoming
dincoming,set
set,as
as,default
default,download
download,directory
directory,for
for,all
all,programs
programs,that
that,download
download,things
things,and
and,dbackup
dbackup,used
used,by
by,Emacs
Emacs,and
and,for
for,temporary
temporary,storage
storage,for
for,instance
instance,for
for,storing
storing,originals
originals,when
when,checking
checking,out
out,newly
newly,created
created,CVS
CVS,projects
projects,I
I,dont
dont,know
know,or
or,care
care,whats
whats,where
where,on
on,my
my,C
C,drive
drive,I
I,have
have,tried
tried,many
many,many
many,address
address,books
books,and
and,still
still,store
store,all
all,my
my,contacts
contacts,email
email,addresses
addresses,snail
snail,mail
mail,addresses
addresses,phone
phone,numbers
numbers,and
and,other
other,vital
vital,personal
personal,information
information,in
in,a
a,text
text,file
file,called
called,phone
phone,stored
stored,in
in,dhomephone
dhomephone,It
It,is
is,not
not,in
in,any
any,particular
particular,format
format,other
other,than
than,being
being,plain
plain,text
text,and
and,usually
usually,including
including,blank
blank,lines
lines,between
between,entries
entries,I
I,categorize
categorize,people
people,with
with,simple
simple,keywords
keywords,in
in,parentheses
parentheses,after
after,their
their,name
name,and
and,use
use,Mxoccur
Mxoccur,in
in,Emacs
Emacs,to
to,search
search,by
by,keyword
keyword,This
This,file
file,is
is,my
my,single
single,most
most,backedup
backedup,possession
possession,Other
Other,essential
essential,free
free,Windows
Windows,utilities
utilities,I
I,use
use,in
in,no
no,particular
particular,order
order,TweakUI
TweakUI,Cygwin
Cygwin,Guidescope
Guidescope,ZoneAlarm
mtmtsearchcgi,downloadsindexhtmlnotepad
Replacing,Notepad
Notepad,with
with,Ultraedit
Ultraedit,ntworkstationdownloadsPowerToysNetworkingNTTweakUIasp
